%YAML 1.1
%TAG !u! tag:unity3d.com,2011:
--- !u!114 &11400000
MonoBehaviour:
  m_ObjectHideFlags: 0
  m_CorrespondingSourceObject: {fileID: 0}
  m_PrefabInstance: {fileID: 0}
  m_PrefabAsset: {fileID: 0}
  m_GameObject: {fileID: 0}
  m_Enabled: 1
  m_EditorHideFlags: 0
  m_Script: {fileID: 11500000, guid: 7650fc4d7d4d68445a44fae9a3c1197d, type: 3}
  m_Name: Lesson6
  m_EditorClassIdentifier: 
  ar_OBJs:
  - {fileID: 7001692854009140782, guid: 3eb4699913766784aa5df776addcc808, type: 3}
  - {fileID: 7001692854009140782, guid: 4c9cee781c7f0194f8931e2e46f6e840, type: 3}
  - {fileID: 7001692854009140782, guid: 7278ed0b13d0ac0479f73e4dd07312f0, type: 3}
  - {fileID: 7001692854009140782, guid: 3eb4699913766784aa5df776addcc808, type: 3}
  - {fileID: 7001692854009140782, guid: 4c9cee781c7f0194f8931e2e46f6e840, type: 3}
  - {fileID: 7001692854009140782, guid: 7278ed0b13d0ac0479f73e4dd07312f0, type: 3}
  - {fileID: 7001692854009140782, guid: 3eb4699913766784aa5df776addcc808, type: 3}
  - {fileID: 7001692854009140782, guid: 4c9cee781c7f0194f8931e2e46f6e840, type: 3}
  - {fileID: 7001692854009140782, guid: 7278ed0b13d0ac0479f73e4dd07312f0, type: 3}
  - {fileID: 7001692854009140782, guid: 3eb4699913766784aa5df776addcc808, type: 3}
  - {fileID: 7001692854009140782, guid: 4c9cee781c7f0194f8931e2e46f6e840, type: 3}
  - {fileID: 7001692854009140782, guid: 7278ed0b13d0ac0479f73e4dd07312f0, type: 3}
  - {fileID: 7001692854009140782, guid: 3eb4699913766784aa5df776addcc808, type: 3}
  - {fileID: 7001692854009140782, guid: 4c9cee781c7f0194f8931e2e46f6e840, type: 3}
  - {fileID: 7001692854009140782, guid: 7278ed0b13d0ac0479f73e4dd07312f0, type: 3}
